25,2.4733e-08,3.0341e-08,1.7518e-08,12,7,8,3
27,0.0091501,0.015864,0.012953,12,11,6,6
28,0.027299,0.044068,0.034135,12,6,10,5
29,0.013182,0.029582,0.026459,12,12,10,10
30,0.012025,0.024573,0.021281,12,12,8,8
31,0.015222,0.028586,0.024159,12,11,7,7
32,0.0070921,0.010075,0.007124,12,11,4,4
33,0.020164,0.028555,0.020191,12,6,9,4
34,0.010967,0.02465,0.022048,12,10,11,10
35,0.012768,0.027732,0.024457,12,12,9,9
36,0.0052181,0.010489,0.0090838,12,10,10,8
37,0.012424,0.023319,0.019708,12,9,10,7
38,0.012819,0.031426,0.028688,12,12,12,12
39,0.0071405,0.014432,0.012499,12,10,10,8
40,0.0073556,0.014779,0.012799,12,8,11,8
41,0.021511,0.037402,0.030539,12,7,11,6
42,0.013835,0.025966,0.021945,12,8,11,7
43,0.022461,0.039508,0.032258,12,8,8,6
44,0.013327,0.023464,0.019158,12,10,8,6
45,0.030921,0.066009,0.058214,12,11,10,9
